
./octez-client --protocol PtParisA6ruu136piHaBC7cQLDP87JEqtczJWP2pLa5QCELGBH5 --mode mockup --no-base-dir-warnings run script michelson_test_scripts/opcodes/set_car.tz on storage '(Pair "hello" 0)' and input '"abc"' --level 1 --trace-stack
storage
  (Pair "abc" 0)
emitted operations
  
big_map diff
  
trace
  - location: 9 (just consumed gas: 10.786)
    [ (Pair "abc" "hello" 0) ]
  - location: 9 (just consumed gas: 0.010)
    [ (Pair "abc" "hello" 0)
      (Pair "abc" "hello" 0) ]
  - location: 10 (just consumed gas: 0.010)
    [ (Pair "hello" 0)
      (Pair "abc" "hello" 0) ]
  - location: 11 (just consumed gas: 0.010)
    [ (Pair "abc" "hello" 0) ]
  - location: 13 (just consumed gas: 0.010)
    [ "abc" ]
  - location: 11 (just consumed gas: 0.035)
    [ (Pair "hello" 0)
      "abc" ]
  - location: 15 (just consumed gas: 0.010)
    [ (Pair "hello" 0)
      (Pair "hello" 0)
      "abc" ]
  - location: 16 (just consumed gas: 0.010)
    [ "hello"
      (Pair "hello" 0)
      "abc" ]
  - location: 17 (just consumed gas: 0.010)
    [ (Pair "hello" 0)
      "abc" ]
  - location: 18 (just consumed gas: 0.010)
    [ 0
      "abc" ]
  - location: 19 (just consumed gas: 0.010)
    [ "abc"
      0 ]
  - location: 20 (just consumed gas: 0.010)
    [ (Pair "abc" 0) ]
  - location: 21 (just consumed gas: 0.010)
    [ {}
      (Pair "abc" 0) ]
  - location: 23 (just consumed gas: 0.010)
    [ (Pair {} "abc" 0) ]

