
./octez-client --protocol PtParisA6ruu136piHaBC7cQLDP87JEqtczJWP2pLa5QCELGBH5 --mode mockup --no-base-dir-warnings run script michelson_test_scripts/opcodes/reverse_loop.tz on storage '{""}' and input '{ "c" ; "b" ; "a" }' --level 1 --trace-stack
storage
  { "a" ; "b" ; "c" }
emitted operations
  
big_map diff
  
trace
  - location: 9 (just consumed gas: 13.866)
    [ (Pair { "c" ; "b" ; "a" } { "" }) ]
  - location: 9 (just consumed gas: 0.010)
    [ { "c" ; "b" ; "a" } ]
  - location: 10 (just consumed gas: 0.010)
    [ {}
      { "c" ; "b" ; "a" } ]
  - location: 12 (just consumed gas: 0.010)
    [ { "c" ; "b" ; "a" }
      {} ]
  - location: 13 (just consumed gas: 0.010)
    [ True
      { "c" ; "b" ; "a" }
      {} ]
  - location: 33 (just consumed gas: 0.020)
    [ { "c" ; "b" ; "a" }
      {} ]
  - location: 18 (just consumed gas: 0.010)
    [ "c"
      { "b" ; "a" }
      {} ]
  - location: 20 (just consumed gas: 0.010)
    [ { "b" ; "a" }
      "c"
      {} ]
  - location: 21 (just consumed gas: 0.010)
    [ "c"
      {} ]
  - location: 23 (just consumed gas: 0.010)
    [ { "c" } ]
  - location: 21 (just consumed gas: 0.035)
    [ { "b" ; "a" }
      { "c" } ]
  - location: 24 (just consumed gas: 0.010)
    [ True
      { "b" ; "a" }
      { "c" } ]
  - location: 18 (just consumed gas: 0.025)
    [ True
      { "b" ; "a" }
      { "c" } ]
  - location: 33 (just consumed gas: 0.025)
    [ { "b" ; "a" }
      { "c" } ]
  - location: 18 (just consumed gas: 0.010)
    [ "b"
      { "a" }
      { "c" } ]
  - location: 20 (just consumed gas: 0.010)
    [ { "a" }
      "b"
      { "c" } ]
  - location: 21 (just consumed gas: 0.010)
    [ "b"
      { "c" } ]
  - location: 23 (just consumed gas: 0.010)
    [ { "b" ; "c" } ]
  - location: 21 (just consumed gas: 0.035)
    [ { "a" }
      { "b" ; "c" } ]
  - location: 24 (just consumed gas: 0.010)
    [ True
      { "a" }
      { "b" ; "c" } ]
  - location: 18 (just consumed gas: 0.025)
    [ True
      { "a" }
      { "b" ; "c" } ]
  - location: 33 (just consumed gas: 0.025)
    [ { "a" }
      { "b" ; "c" } ]
  - location: 18 (just consumed gas: 0.010)
    [ "a"
      {}
      { "b" ; "c" } ]
  - location: 20 (just consumed gas: 0.010)
    [ {}
      "a"
      { "b" ; "c" } ]
  - location: 21 (just consumed gas: 0.010)
    [ "a"
      { "b" ; "c" } ]
  - location: 23 (just consumed gas: 0.010)
    [ { "a" ; "b" ; "c" } ]
  - location: 21 (just consumed gas: 0.035)
    [ {}
      { "a" ; "b" ; "c" } ]
  - location: 24 (just consumed gas: 0.010)
    [ True
      {}
      { "a" ; "b" ; "c" } ]
  - location: 18 (just consumed gas: 0.025)
    [ True
      {}
      { "a" ; "b" ; "c" } ]
  - location: 33 (just consumed gas: 0.025)
    [ {}
      { "a" ; "b" ; "c" } ]
  - location: 18 (just consumed gas: 0.010)
    [ { "a" ; "b" ; "c" } ]
  - location: 28 (just consumed gas: 0.010)
    [ {}
      { "a" ; "b" ; "c" } ]
  - location: 30 (just consumed gas: 0.010)
    [ False
      {}
      { "a" ; "b" ; "c" } ]
  - location: 18 (just consumed gas: 0.025)
    [ False
      {}
      { "a" ; "b" ; "c" } ]
  - location: 33 (just consumed gas: 0.035)
    [ {}
      { "a" ; "b" ; "c" } ]
  - location: 33 (just consumed gas: 0.010)
    [ { "a" ; "b" ; "c" } ]
  - location: 34 (just consumed gas: 0.010)
    [ {}
      { "a" ; "b" ; "c" } ]
  - location: 36 (just consumed gas: 0.010)
    [ (Pair {} { "a" ; "b" ; "c" }) ]

