
./octez-client --protocol PtParisA6ruu136piHaBC7cQLDP87JEqtczJWP2pLa5QCELGBH5 --mode mockup --no-base-dir-warnings run script michelson_test_scripts/opcodes/neg.tz on storage 0 and input '(Left 0)' --level 1 --trace-stack
storage
  0
emitted operations
  
big_map diff
  
trace
  - location: 9 (just consumed gas: 6.063)
    [ (Pair (Left 0) 0) ]
  - location: 9 (just consumed gas: 0.010)
    [ (Left 0) ]
  - location: 10 (just consumed gas: 0.010)
    [ 0 ]
  - location: 12 (just consumed gas: 0.025)
    [ 0 ]
  - location: 10 (just consumed gas: 0.025)
    [ 0 ]
  - location: 15 (just consumed gas: 0.010)
    [ {}
      0 ]
  - location: 17 (just consumed gas: 0.010)
    [ (Pair {} 0) ]

