
./octez-client --protocol PtParisA6ruu136piHaBC7cQLDP87JEqtczJWP2pLa5QCELGBH5 --mode mockup --no-base-dir-warnings run script michelson_test_scripts/opcodes/not_binary.tz on storage None and input '(Left -9)' --level 1 --trace-stack
storage
  (Some 8)
emitted operations
  
big_map diff
  
trace
  - location: 10 (just consumed gas: 6.822)
    [ (Pair (Left -9) None) ]
  - location: 10 (just consumed gas: 0.010)
    [ (Left -9) ]
  - location: 11 (just consumed gas: 0.010)
    [ -9 ]
  - location: 13 (just consumed gas: 0.025)
    [ 8 ]
  - location: 11 (just consumed gas: 0.025)
    [ 8 ]
  - location: 16 (just consumed gas: 0.010)
    [ (Some 8) ]
  - location: 17 (just consumed gas: 0.010)
    [ {}
      (Some 8) ]
  - location: 19 (just consumed gas: 0.010)
    [ (Pair {} (Some 8)) ]

