
./octez-client --protocol PtParisA6ruu136piHaBC7cQLDP87JEqtczJWP2pLa5QCELGBH5 --mode mockup --no-base-dir-warnings run script michelson_test_scripts/opcodes/and.tz on storage None and input '(Pair True True)' --level 1 --trace-stack
storage
  (Some True)
emitted operations
  
big_map diff
  
trace
  - location: 10 (just consumed gas: 7.431)
    [ (Pair (Pair True True) None) ]
  - location: 10 (just consumed gas: 0.010)
    [ (Pair True True) ]
  - location: 11 (just consumed gas: 0.010)
    [ True
      True ]
  - location: 12 (just consumed gas: 0.010)
    [ True ]
  - location: 13 (just consumed gas: 0.010)
    [ (Some True) ]
  - location: 14 (just consumed gas: 0.010)
    [ {}
      (Some True) ]
  - location: 16 (just consumed gas: 0.010)
    [ (Pair {} (Some True)) ]
  - location: 17 (just consumed gas: 0.010)
    [ {}
      (Some True) ]
  - location: 18 (just consumed gas: 0.010)
    [ (Pair {} (Some True)) ]

