
./octez-client --protocol PtParisA6ruu136piHaBC7cQLDP87JEqtczJWP2pLa5QCELGBH5 --mode mockup --no-base-dir-warnings run script michelson_test_scripts/opcodes/pexec_2.tz on storage '{ 0 ; 1 ; 2 ; 3}' and input 4 --level 1 --trace-stack
storage
  { 0 ; 7 ; 14 ; 21 }
emitted operations
  
big_map diff
  
trace
  - location: 8 (just consumed gas: 16.800)
    [ (Pair 4 { 0 ; 1 ; 2 ; 3 }) ]
  - location: 8 (just consumed gas: 0.010)
    [ 4
      { 0 ; 1 ; 2 ; 3 } ]
  - location: 9 (just consumed gas: 0.010)
    [ { UNPAIR ; DIP { UNPAIR } ; ADD ; MUL }
      4
      { 0 ; 1 ; 2 ; 3 } ]
  - location: 23 (just consumed gas: 0.010)
    [ 4
      { UNPAIR ; DIP { UNPAIR } ; ADD ; MUL }
      { 0 ; 1 ; 2 ; 3 } ]
  - location: 24 (just consumed gas: 0.401)
    [ { PUSH int 4 ; PAIR ; { UNPAIR ; DIP { UNPAIR } ; ADD ; MUL } }
      { 0 ; 1 ; 2 ; 3 } ]
  - location: 25 (just consumed gas: 0.010)
    [ 3
      { PUSH int 4 ; PAIR ; { UNPAIR ; DIP { UNPAIR } ; ADD ; MUL } }
      { 0 ; 1 ; 2 ; 3 } ]
  - location: 28 (just consumed gas: 0.401)
    [ { PUSH int 3 ;
        PAIR ;
        { PUSH int 4 ; PAIR ; { UNPAIR ; DIP { UNPAIR } ; ADD ; MUL } } }
      { 0 ; 1 ; 2 ; 3 } ]
  - location: 29 (just consumed gas: 0.010)
    [ { 0 ; 1 ; 2 ; 3 }
      { PUSH int 3 ;
        PAIR ;
        { PUSH int 4 ; PAIR ; { UNPAIR ; DIP { UNPAIR } ; ADD ; MUL } } } ]
  - location: 30 (just consumed gas: 0.050)
    [ 0
      { PUSH int 3 ;
        PAIR ;
        { PUSH int 4 ; PAIR ; { UNPAIR ; DIP { UNPAIR } ; ADD ; MUL } } } ]
  - location: 32 (just consumed gas: 0.010)
    [ { PUSH int 3 ;
        PAIR ;
        { PUSH int 4 ; PAIR ; { UNPAIR ; DIP { UNPAIR } ; ADD ; MUL } } } ]
  - location: 34 (just consumed gas: 0.010)
    [ { PUSH int 3 ;
        PAIR ;
        { PUSH int 4 ; PAIR ; { UNPAIR ; DIP { UNPAIR } ; ADD ; MUL } } }
      { PUSH int 3 ;
        PAIR ;
        { PUSH int 4 ; PAIR ; { UNPAIR ; DIP { UNPAIR } ; ADD ; MUL } } } ]
  - location: 32 (just consumed gas: 0.035)
    [ 0
      { PUSH int 3 ;
        PAIR ;
        { PUSH int 4 ; PAIR ; { UNPAIR ; DIP { UNPAIR } ; ADD ; MUL } } }
      { PUSH int 3 ;
        PAIR ;
        { PUSH int 4 ; PAIR ; { UNPAIR ; DIP { UNPAIR } ; ADD ; MUL } } } ]
  - location: 16 (just consumed gas: 0.020)
    [ 3
      0 ]
  - location: 16 (just consumed gas: 0.010)
    [ (Pair 3 0) ]
  - location: 16 (just consumed gas: 0.010)
    [ 4
      (Pair 3 0) ]
  - location: 16 (just consumed gas: 0.010)
    [ (Pair 4 3 0) ]
  - location: 17 (just consumed gas: 0.010)
    [ 4
      (Pair 3 0) ]
  - location: 18 (just consumed gas: 0.010)
    [ (Pair 3 0) ]
  - location: 20 (just consumed gas: 0.010)
    [ 3
      0 ]
  - location: 18 (just consumed gas: 0.035)
    [ 4
      3
      0 ]
  - location: 21 (just consumed gas: 0.035)
    [ 7
      0 ]
  - location: 22 (just consumed gas: 0.056)
    [ 0 ]
  - location: 35 (just consumed gas: 0.035)
    [ 0
      { PUSH int 3 ;
        PAIR ;
        { PUSH int 4 ; PAIR ; { UNPAIR ; DIP { UNPAIR } ; ADD ; MUL } } } ]
  - location: 30 (just consumed gas: 0.055)
    [ 1
      { PUSH int 3 ;
        PAIR ;
        { PUSH int 4 ; PAIR ; { UNPAIR ; DIP { UNPAIR } ; ADD ; MUL } } } ]
  - location: 32 (just consumed gas: 0.010)
    [ { PUSH int 3 ;
        PAIR ;
        { PUSH int 4 ; PAIR ; { UNPAIR ; DIP { UNPAIR } ; ADD ; MUL } } } ]
  - location: 34 (just consumed gas: 0.010)
    [ { PUSH int 3 ;
        PAIR ;
        { PUSH int 4 ; PAIR ; { UNPAIR ; DIP { UNPAIR } ; ADD ; MUL } } }
      { PUSH int 3 ;
        PAIR ;
        { PUSH int 4 ; PAIR ; { UNPAIR ; DIP { UNPAIR } ; ADD ; MUL } } } ]
  - location: 32 (just consumed gas: 0.035)
    [ 1
      { PUSH int 3 ;
        PAIR ;
        { PUSH int 4 ; PAIR ; { UNPAIR ; DIP { UNPAIR } ; ADD ; MUL } } }
      { PUSH int 3 ;
        PAIR ;
        { PUSH int 4 ; PAIR ; { UNPAIR ; DIP { UNPAIR } ; ADD ; MUL } } } ]
  - location: 16 (just consumed gas: 0.020)
    [ 3
      1 ]
  - location: 16 (just consumed gas: 0.010)
    [ (Pair 3 1) ]
  - location: 16 (just consumed gas: 0.010)
    [ 4
      (Pair 3 1) ]
  - location: 16 (just consumed gas: 0.010)
    [ (Pair 4 3 1) ]
  - location: 17 (just consumed gas: 0.010)
    [ 4
      (Pair 3 1) ]
  - location: 18 (just consumed gas: 0.010)
    [ (Pair 3 1) ]
  - location: 20 (just consumed gas: 0.010)
    [ 3
      1 ]
  - location: 18 (just consumed gas: 0.035)
    [ 4
      3
      1 ]
  - location: 21 (just consumed gas: 0.035)
    [ 7
      1 ]
  - location: 22 (just consumed gas: 0.059)
    [ 7 ]
  - location: 35 (just consumed gas: 0.035)
    [ 7
      { PUSH int 3 ;
        PAIR ;
        { PUSH int 4 ; PAIR ; { UNPAIR ; DIP { UNPAIR } ; ADD ; MUL } } } ]
  - location: 30 (just consumed gas: 0.055)
    [ 2
      { PUSH int 3 ;
        PAIR ;
        { PUSH int 4 ; PAIR ; { UNPAIR ; DIP { UNPAIR } ; ADD ; MUL } } } ]
  - location: 32 (just consumed gas: 0.010)
    [ { PUSH int 3 ;
        PAIR ;
        { PUSH int 4 ; PAIR ; { UNPAIR ; DIP { UNPAIR } ; ADD ; MUL } } } ]
  - location: 34 (just consumed gas: 0.010)
    [ { PUSH int 3 ;
        PAIR ;
        { PUSH int 4 ; PAIR ; { UNPAIR ; DIP { UNPAIR } ; ADD ; MUL } } }
      { PUSH int 3 ;
        PAIR ;
        { PUSH int 4 ; PAIR ; { UNPAIR ; DIP { UNPAIR } ; ADD ; MUL } } } ]
  - location: 32 (just consumed gas: 0.035)
    [ 2
      { PUSH int 3 ;
        PAIR ;
        { PUSH int 4 ; PAIR ; { UNPAIR ; DIP { UNPAIR } ; ADD ; MUL } } }
      { PUSH int 3 ;
        PAIR ;
        { PUSH int 4 ; PAIR ; { UNPAIR ; DIP { UNPAIR } ; ADD ; MUL } } } ]
  - location: 16 (just consumed gas: 0.020)
    [ 3
      2 ]
  - location: 16 (just consumed gas: 0.010)
    [ (Pair 3 2) ]
  - location: 16 (just consumed gas: 0.010)
    [ 4
      (Pair 3 2) ]
  - location: 16 (just consumed gas: 0.010)
    [ (Pair 4 3 2) ]
  - location: 17 (just consumed gas: 0.010)
    [ 4
      (Pair 3 2) ]
  - location: 18 (just consumed gas: 0.010)
    [ (Pair 3 2) ]
  - location: 20 (just consumed gas: 0.010)
    [ 3
      2 ]
  - location: 18 (just consumed gas: 0.035)
    [ 4
      3
      2 ]
  - location: 21 (just consumed gas: 0.035)
    [ 7
      2 ]
  - location: 22 (just consumed gas: 0.059)
    [ 14 ]
  - location: 35 (just consumed gas: 0.035)
    [ 14
      { PUSH int 3 ;
        PAIR ;
        { PUSH int 4 ; PAIR ; { UNPAIR ; DIP { UNPAIR } ; ADD ; MUL } } } ]
  - location: 30 (just consumed gas: 0.055)
    [ 3
      { PUSH int 3 ;
        PAIR ;
        { PUSH int 4 ; PAIR ; { UNPAIR ; DIP { UNPAIR } ; ADD ; MUL } } } ]
  - location: 32 (just consumed gas: 0.010)
    [ { PUSH int 3 ;
        PAIR ;
        { PUSH int 4 ; PAIR ; { UNPAIR ; DIP { UNPAIR } ; ADD ; MUL } } } ]
  - location: 34 (just consumed gas: 0.010)
    [ { PUSH int 3 ;
        PAIR ;
        { PUSH int 4 ; PAIR ; { UNPAIR ; DIP { UNPAIR } ; ADD ; MUL } } }
      { PUSH int 3 ;
        PAIR ;
        { PUSH int 4 ; PAIR ; { UNPAIR ; DIP { UNPAIR } ; ADD ; MUL } } } ]
  - location: 32 (just consumed gas: 0.035)
    [ 3
      { PUSH int 3 ;
        PAIR ;
        { PUSH int 4 ; PAIR ; { UNPAIR ; DIP { UNPAIR } ; ADD ; MUL } } }
      { PUSH int 3 ;
        PAIR ;
        { PUSH int 4 ; PAIR ; { UNPAIR ; DIP { UNPAIR } ; ADD ; MUL } } } ]
  - location: 16 (just consumed gas: 0.020)
    [ 3
      3 ]
  - location: 16 (just consumed gas: 0.010)
    [ (Pair 3 3) ]
  - location: 16 (just consumed gas: 0.010)
    [ 4
      (Pair 3 3) ]
  - location: 16 (just consumed gas: 0.010)
    [ (Pair 4 3 3) ]
  - location: 17 (just consumed gas: 0.010)
    [ 4
      (Pair 3 3) ]
  - location: 18 (just consumed gas: 0.010)
    [ (Pair 3 3) ]
  - location: 20 (just consumed gas: 0.010)
    [ 3
      3 ]
  - location: 18 (just consumed gas: 0.035)
    [ 4
      3
      3 ]
  - location: 21 (just consumed gas: 0.035)
    [ 7
      3 ]
  - location: 22 (just consumed gas: 0.059)
    [ 21 ]
  - location: 35 (just consumed gas: 0.035)
    [ 21
      { PUSH int 3 ;
        PAIR ;
        { PUSH int 4 ; PAIR ; { UNPAIR ; DIP { UNPAIR } ; ADD ; MUL } } } ]
  - location: 30 (just consumed gas: 0.072)
    [ { 0 ; 7 ; 14 ; 21 }
      { PUSH int 3 ;
        PAIR ;
        { PUSH int 4 ; PAIR ; { UNPAIR ; DIP { UNPAIR } ; ADD ; MUL } } } ]
  - location: 36 (just consumed gas: 0.010)
    [ { PUSH int 3 ;
        PAIR ;
        { PUSH int 4 ; PAIR ; { UNPAIR ; DIP { UNPAIR } ; ADD ; MUL } } } ]
  - location: 38 (just consumed gas: 0.010)
    [  ]
  - location: 36 (just consumed gas: 0.035)
    [ { 0 ; 7 ; 14 ; 21 } ]
  - location: 39 (just consumed gas: 0.010)
    [ {}
      { 0 ; 7 ; 14 ; 21 } ]
  - location: 41 (just consumed gas: 0.010)
    [ (Pair {} { 0 ; 7 ; 14 ; 21 }) ]

