
./octez-client --protocol PtParisA6ruu136piHaBC7cQLDP87JEqtczJWP2pLa5QCELGBH5 --mode mockup --no-base-dir-warnings run script michelson_test_scripts/opcodes/get_map_value.tz on storage '(Pair None { Elt "1" "one" ; Elt "2" "two" })' and input '"1"' --level 1 --trace-stack
storage
  (Pair (Some "one") { Elt "1" "one" ; Elt "2" "two" })
emitted operations
  
big_map diff
  
trace
  - location: 12 (just consumed gas: 10.847)
    [ (Pair "1" None { Elt "1" "one" ; Elt "2" "two" }) ]
  - location: 12 (just consumed gas: 0.010)
    [ (Pair "1" None { Elt "1" "one" ; Elt "2" "two" })
      (Pair "1" None { Elt "1" "one" ; Elt "2" "two" }) ]
  - location: 13 (just consumed gas: 0.010)
    [ "1"
      (Pair "1" None { Elt "1" "one" ; Elt "2" "two" }) ]
  - location: 14 (just consumed gas: 0.010)
    [ (Pair "1" None { Elt "1" "one" ; Elt "2" "two" }) ]
  - location: 17 (just consumed gas: 0.010)
    [ (Pair None { Elt "1" "one" ; Elt "2" "two" }) ]
  - location: 18 (just consumed gas: 0.010)
    [ { Elt "1" "one" ; Elt "2" "two" } ]
  - location: 19 (just consumed gas: 0.010)
    [ { Elt "1" "one" ; Elt "2" "two" }
      { Elt "1" "one" ; Elt "2" "two" } ]
  - location: 14 (just consumed gas: 0.035)
    [ "1"
      { Elt "1" "one" ; Elt "2" "two" }
      { Elt "1" "one" ; Elt "2" "two" } ]
  - location: 20 (just consumed gas: 0.045)
    [ (Some "one")
      { Elt "1" "one" ; Elt "2" "two" } ]
  - location: 21 (just consumed gas: 0.010)
    [ (Pair (Some "one") { Elt "1" "one" ; Elt "2" "two" }) ]
  - location: 22 (just consumed gas: 0.010)
    [ {}
      (Pair (Some "one") { Elt "1" "one" ; Elt "2" "two" }) ]
  - location: 24 (just consumed gas: 0.010)
    [ (Pair {} (Some "one") { Elt "1" "one" ; Elt "2" "two" }) ]

