
./octez-client --protocol PtParisA6ruu136piHaBC7cQLDP87JEqtczJWP2pLa5QCELGBH5 --mode mockup --no-base-dir-warnings run script michelson_test_scripts/opcodes/sub_timestamp_delta.tz on storage 111 and input '(Pair 100 100)' --level 1 --trace-stack
storage
  "1970-01-01T00:00:00Z"
emitted operations
  
big_map diff
  
trace
  - location: 9 (just consumed gas: 7.334)
    [ (Pair (Pair "1970-01-01T00:01:40Z" 100) "1970-01-01T00:01:51Z") ]
  - location: 9 (just consumed gas: 0.010)
    [ (Pair "1970-01-01T00:01:40Z" 100) ]
  - location: 10 (just consumed gas: 0.010)
    [ (Pair "1970-01-01T00:01:40Z" 100)
      (Pair "1970-01-01T00:01:40Z" 100) ]
  - location: 11 (just consumed gas: 0.010)
    [ "1970-01-01T00:01:40Z"
      (Pair "1970-01-01T00:01:40Z" 100) ]
  - location: 12 (just consumed gas: 0.010)
    [ (Pair "1970-01-01T00:01:40Z" 100) ]
  - location: 14 (just consumed gas: 0.010)
    [ 100 ]
  - location: 12 (just consumed gas: 0.035)
    [ "1970-01-01T00:01:40Z"
      100 ]
  - location: 15 (just consumed gas: 0.035)
    [ "1970-01-01T00:00:00Z" ]
  - location: 16 (just consumed gas: 0.010)
    [ {}
      "1970-01-01T00:00:00Z" ]
  - location: 18 (just consumed gas: 0.010)
    [ (Pair {} "1970-01-01T00:00:00Z") ]

