
./octez-client --protocol PtParisA6ruu136piHaBC7cQLDP87JEqtczJWP2pLa5QCELGBH5 --mode mockup --no-base-dir-warnings run script michelson_test_scripts/opcodes/not_binary.tz on storage None and input '(Left 0)' --level 1 --trace-stack
storage
  (Some -1)
emitted operations
  
big_map diff
  
trace
  - location: 10 (just consumed gas: 6.822)
    [ (Pair (Left 0) None) ]
  - location: 10 (just consumed gas: 0.010)
    [ (Left 0) ]
  - location: 11 (just consumed gas: 0.010)
    [ 0 ]
  - location: 13 (just consumed gas: 0.025)
    [ -1 ]
  - location: 11 (just consumed gas: 0.025)
    [ -1 ]
  - location: 16 (just consumed gas: 0.010)
    [ (Some -1) ]
  - location: 17 (just consumed gas: 0.010)
    [ {}
      (Some -1) ]
  - location: 19 (just consumed gas: 0.010)
    [ (Pair {} (Some -1)) ]

