
./octez-client --protocol PtParisA6ruu136piHaBC7cQLDP87JEqtczJWP2pLa5QCELGBH5 --mode mockup --no-base-dir-warnings run script michelson_test_scripts/opcodes/contains_all.tz on storage None and input '(Pair { "c" } { "B" })' --level 1 --trace-stack
storage
  (Some False)
emitted operations
  
big_map diff
  
trace
  - location: 12 (just consumed gas: 31.962)
    [ (Pair (Pair { "c" } { "B" }) None) ]
  - location: 12 (just consumed gas: 0.010)
    [ (Pair { "c" } { "B" }) ]
  - location: 13 (just consumed gas: 0.010)
    [ (Pair { "c" } { "B" })
      (Pair { "c" } { "B" }) ]
  - location: 14 (just consumed gas: 0.010)
    [ { "c" }
      (Pair { "c" } { "B" }) ]
  - location: 15 (just consumed gas: 0.010)
    [ (Pair { "c" } { "B" }) ]
  - location: 17 (just consumed gas: 0.010)
    [ { "B" } ]
  - location: 15 (just consumed gas: 0.035)
    [ { "c" }
      { "B" } ]
  - location: 18 (just consumed gas: 0.300)
    [ {}
      { "c" }
      { "B" } ]
  - location: 20 (just consumed gas: 0.010)
    [ { "c" }
      {}
      { "B" } ]
  - location: 21 (just consumed gas: 0.030)
    [ "c"
      {}
      { "B" } ]
  - location: 23 (just consumed gas: 0.010)
    [ (Pair "c" {})
      { "B" } ]
  - location: 24 (just consumed gas: 0.010)
    [ (Pair "c" {})
      (Pair "c" {})
      { "B" } ]
  - location: 25 (just consumed gas: 0.010)
    [ "c"
      (Pair "c" {})
      { "B" } ]
  - location: 26 (just consumed gas: 0.010)
    [ (Pair "c" {})
      { "B" } ]
  - location: 28 (just consumed gas: 0.010)
    [ {}
      { "B" } ]
  - location: 26 (just consumed gas: 0.035)
    [ "c"
      {}
      { "B" } ]
  - location: 29 (just consumed gas: 0.010)
    [ True
      "c"
      {}
      { "B" } ]
  - location: 32 (just consumed gas: 0.010)
    [ "c"
      True
      {}
      { "B" } ]
  - location: 33 (just consumed gas: 0.050)
    [ { "c" }
      { "B" } ]
  - location: 21 (just consumed gas: 0.035)
    [ { "c" }
      { "B" } ]
  - location: 34 (just consumed gas: 0.010)
    [ True
      { "c" }
      { "B" } ]
  - location: 37 (just consumed gas: 0.010)
    [ { "c" }
      True
      { "B" } ]
  - location: 38 (just consumed gas: 0.010)
    [ (Pair { "c" } True)
      { "B" } ]
  - location: 39 (just consumed gas: 0.010)
    [ { "B" }
      (Pair { "c" } True) ]
  - location: 40 (just consumed gas: 0.030)
    [ "B"
      (Pair { "c" } True) ]
  - location: 42 (just consumed gas: 0.010)
    [ (Pair "B" { "c" } True) ]
  - location: 43 (just consumed gas: 0.010)
    [ (Pair "B" { "c" } True)
      (Pair "B" { "c" } True) ]
  - location: 44 (just consumed gas: 0.010)
    [ (Pair "B" { "c" } True)
      (Pair "B" { "c" } True)
      (Pair "B" { "c" } True) ]
  - location: 45 (just consumed gas: 0.010)
    [ "B"
      (Pair "B" { "c" } True)
      (Pair "B" { "c" } True) ]
  - location: 46 (just consumed gas: 0.010)
    [ (Pair "B" { "c" } True)
      (Pair "B" { "c" } True) ]
  - location: 49 (just consumed gas: 0.010)
    [ (Pair { "c" } True)
      (Pair "B" { "c" } True) ]
  - location: 50 (just consumed gas: 0.010)
    [ { "c" }
      (Pair "B" { "c" } True) ]
  - location: 51 (just consumed gas: 0.010)
    [ (Pair "B" { "c" } True) ]
  - location: 54 (just consumed gas: 0.010)
    [ (Pair { "c" } True) ]
  - location: 55 (just consumed gas: 0.010)
    [ True ]
  - location: 51 (just consumed gas: 0.035)
    [ { "c" }
      True ]
  - location: 56 (just consumed gas: 0.010)
    [ { "c" }
      { "c" }
      True ]
  - location: 46 (just consumed gas: 0.035)
    [ "B"
      { "c" }
      { "c" }
      True ]
  - location: 57 (just consumed gas: 0.040)
    [ False
      { "c" }
      True ]
  - location: 58 (just consumed gas: 0.010)
    [ { "c" }
      True ]
  - location: 60 (just consumed gas: 0.010)
    [ True
      { "c" } ]
  - location: 58 (just consumed gas: 0.035)
    [ False
      True
      { "c" } ]
  - location: 61 (just consumed gas: 0.010)
    [ False
      { "c" } ]
  - location: 62 (just consumed gas: 0.010)
    [ { "c" }
      False ]
  - location: 63 (just consumed gas: 0.010)
    [ (Pair { "c" } False) ]
  - location: 40 (just consumed gas: 0.035)
    [ (Pair { "c" } False) ]
  - location: 64 (just consumed gas: 0.010)
    [ False ]
  - location: 65 (just consumed gas: 0.010)
    [ (Some False) ]
  - location: 66 (just consumed gas: 0.010)
    [ {}
      (Some False) ]
  - location: 68 (just consumed gas: 0.010)
    [ (Pair {} (Some False)) ]

