[
    "benchmarks/bench_storage_1.js",
    "benchmarks/bench_storage_2.js",
    "benchmarks/bench_transfers_1.js",
    "benchmarks/bench_transfers_2.js",
    "benchmarks/bench_transfers_3.js",
    "benchmarks/bench_keccak.js",
    "benchmarks/bench_verifySignature.js",
    "benchmarks/bench_erc20tok.js",
    "benchmarks/bench_read_info.js",
    "benchmarks/scenarios/solidity_by_example/bench_abi_decode.js",
    "benchmarks/scenarios/solidity_by_example/bench_abi_encode.js",
    "benchmarks/scenarios/solidity_by_example/bench_array.js",
    "benchmarks/scenarios/solidity_by_example/bench_assembly_error.js",
    "benchmarks/scenarios/solidity_by_example/bench_assembly_loop.js",
    "benchmarks/scenarios/solidity_by_example/bench_assembly_variable.js",
    "benchmarks/scenarios/solidity_by_example/bench_bitwise_op.js",
    "benchmarks/scenarios/solidity_by_example/bench_counter.js",
    "benchmarks/scenarios/solidity_by_example/bench_create_contract.js",
    "benchmarks/scenarios/solidity_by_example/bench_delegatecall.js",
    "benchmarks/scenarios/solidity_by_example/bench_enum.js",
    "benchmarks/scenarios/solidity_by_example/bench_event.js",
    "benchmarks/scenarios/solidity_by_example/bench_function_modifier.js",
    "benchmarks/scenarios/solidity_by_example/bench_function_selector.js",
    "benchmarks/scenarios/solidity_by_example/bench_immutable.js",
    "benchmarks/scenarios/solidity_by_example/bench_mapping.js",
    "benchmarks/scenarios/solidity_by_example/bench_payable.js",
    "benchmarks/scenarios/solidity_by_example/bench_send_ether.js",
    "benchmarks/scenarios/solidity_by_example/bench_struct.js",
    "benchmarks/scenarios/solidity_by_example/bench_ether_wallet.js",
    "benchmarks/scenarios/solidity_by_example/bench_multi_sig_wallet.js",
    "benchmarks/scenarios/solidity_by_example/bench_merkle_tree.js",
    "benchmarks/scenarios/solidity_by_example/bench_iterable_map.js",
    "benchmarks/scenarios/solidity_by_example/bench_erc721.js",
    "benchmarks/scenarios/solidity_by_example/bench_bytecode_contract.js",
    "benchmarks/scenarios/solidity_by_example/bench_create2.js",
    "benchmarks/scenarios/solidity_by_example/bench_minimal_proxy.js",
    "benchmarks/scenarios/solidity_by_example/bench_upgradeable_proxy.js",
    "benchmarks/scenarios/solidity_by_example/bench_binary_exponentiation.js",
    "benchmarks/bench_erc1155.js",
    "benchmarks/bench_selfdestruct.js",
    "benchmarks/bench_creates_erc20.js",
    "benchmarks/bench_creates_erc1155.js",
    "benchmarks/bench_precompile.js",
    "benchmarks/bench_ecdsa.js",
    "benchmarks/bench_blake2f.js",
    "benchmarks/bench_ecadd.js",
    "benchmarks/bench_ecmul.js",
    "benchmarks/bench_ecpairing.js",
    "benchmarks/bench_modexp.js",
    "benchmarks/bench_linear_transfers.js --count 0",
    "benchmarks/bench_linear_transfers.js --count 5",
    "benchmarks/bench_linear_transfers.js --count 10",
    "benchmarks/bench_linear_transfers.js --count 15",
    "benchmarks/bench_linear_transfers.js --count 20",
    "benchmarks/bench_linear_transfers.js --count 25",
    "benchmarks/bench_linear_transfers.js --count 30",
    "benchmarks/bench_linear_erc20.js --count 0",
    "benchmarks/bench_linear_erc20.js --count 5",
    "benchmarks/bench_linear_erc20.js --count 10",
    "benchmarks/bench_linear_erc20.js --count 15",
    "benchmarks/bench_linear_erc20.js --count 20",
    "benchmarks/bench_linear_erc20.js --count 25",
    "benchmarks/bench_linear_erc20.js --count 30",
    "benchmarks/bench_loop_calldataload.js",
    "benchmarks/bench_linear_transfers.js --count 200",
    "benchmarks/bench_linear_erc20.js --count 200",
    "benchmarks/bench_linear_erc1155.js --count 20",
    "benchmarks/bench_linear_erc1155_create.js --count 200",
    "benchmarks/bench_linear_verifySignature.js --count 200",
    "benchmarks/bench_loop_progressive.js",
    "benchmarks/bench_loop_expensive.js",
    "benchmarks/bench_deposit.js"
]
